%YAML 1.1
%TAG !u! tag:unity3d.com,2011:
--- !u!1045 &1
EditorBuildSettings:
  m_ObjectHideFlags: 0
  serializedVersion: 2
  m_Scenes:
  - enabled: 1
    path: Assets/Scenes/SegundaEscena.unity
    guid: 046d6afb6a26e694091758ac2fc409d5
  - enabled: 1
    path: Assets/Scenes/SampleScene.unity
    guid: 73f4c25cba421e34d97ea567b540d6a5
  m_configObjects: {}
