%YAML 1.1
%TAG !u! tag:unity3d.com,2011:
--- !u!1045 &1
EditorBuildSettings:
  m_ObjectHideFlags: 0
  serializedVersion: 2
  m_Scenes:
  - enabled: 1
    path: Assets/Scenes/MenuPrincipal.unity
    guid: 604f1b8335af09d48ab48ee2f1aaa92d
  - enabled: 1
    path: Assets/Scenes/Mapa0.unity
    guid: 6ff86af7dcd7bc34c87c8f11c72fd203
  - enabled: 1
    path: Assets/Scenes/CasaInicial.unity
    guid: 9876068c8f95bbc429eed3f63668b212
  - enabled: 1
    path: Assets/Scenes/Tienda.unity
    guid: d0bcc560ea08b7640a337f2c85652828
  - enabled: 1
    path: Assets/Scenes/SalaTurorial.unity
    guid: bf0f2cb832dc1de4db7ca9f86664521e
  - enabled: 1
    path: Assets/Scenes/Cueva.unity
    guid: 268d5be0cbe03794fb01ae90bd8a1db0
  - enabled: 1
    path: Assets/Scenes/Mazmorra/Mazmorra0.unity
    guid: 62bd986b3c169c847b4a11720a070712
  - enabled: 1
    path: Assets/Scenes/Mazmorra/Mazmorra1.unity
    guid: 098c3b83414564e4ba59c3914d702d82
  - enabled: 1
    path: Assets/Scenes/Mazmorra/Mazmorra11.unity
    guid: 63e0848dbd1976744bbf1062c87b2fcc
  - enabled: 1
    path: Assets/Scenes/Mazmorra/Mazmorra2.unity
    guid: f83b67fc6deb0f147a71ceb2dc5ac424
  - enabled: 1
    path: Assets/Scenes/Mazmorra/Mazmorra21.unity
    guid: 2171f23428219ff40a29b8c687ad0f89
  - enabled: 1
    path: Assets/Scenes/Mazmorra/Mazmorra3.unity
    guid: 8b7e27bcb836aa64596a9f88b81127bf
  - enabled: 1
    path: Assets/Scenes/Mazmorra/Mazmorra4.unity
    guid: ca66cb5016bd67441bf9f0bdf8a611f0
  - enabled: 1
    path: Assets/Scenes/Mazmorra/Mazmorra5.unity
    guid: 3afd9ea4349207e4eac4d376a2735d64
  - enabled: 1
    path: Assets/Scenes/Mazmorra/Mazmorra6.unity
    guid: 982811bdbcf843644a99a3cd26b45c64
  - enabled: 1
    path: Assets/Scenes/Mazmorra/Mazmorra61.unity
    guid: fd18c09417e1f5d4fb6122728ca97930
  - enabled: 1
    path: Assets/Scenes/Mazmorra/Mazmorra62.unity
    guid: 7e5743c13e4f69848953f1b63daed483
  m_configObjects: {}
